%YAML 1.1
%TAG !u! tag:unity3d.com,2011:
--- !u!74 &7400000
AnimationClip:
  m_ObjectHideFlags: 0
  m_CorrespondingSourceObject: {fileID: 0}
  m_PrefabInstance: {fileID: 0}
  m_PrefabAsset: {fileID: 0}
  m_Name: Loading
  serializedVersion: 6
  m_Legacy: 0
  m_Compressed: 0
  m_UseHighQualityCurve: 1
  m_RotationCurves: []
  m_CompressedRotationCurves: []
  m_EulerCurves: []
  m_PositionCurves: []
  m_ScaleCurves: []
  m_FloatCurves: []
  m_PPtrCurves:
  - curve:
    - time: 0
      value: {fileID: 21300000, guid: 530d636e1d1edcb44a93e7d05eb33ca0, type: 3}
    - time: 0.125
      value: {fileID: 21300000, guid: a478f642feaf896408479c92d9365dc1, type: 3}
    - time: 0.25
      value: {fileID: 21300000, guid: 4ad82745d790f5747b4e36758a3fa7b2, type: 3}
    - time: 0.375
      value: {fileID: 21300000, guid: afc2c9e2c9ce0114986f9c3b63d801a3, type: 3}
    - time: 0.5
      value: {fileID: 21300000, guid: d8f19306d557f614fbf911c0cc1e552b, type: 3}
    - time: 0.625
      value: {fileID: 21300000, guid: fba82b8c19ffa8540a845a67e1cc4e9f, type: 3}
    - time: 0.75
      value: {fileID: 21300000, guid: f9b2406030434c9499ee5ac722337740, type: 3}
    - time: 0.875
      value: {fileID: 21300000, guid: d87ccb93cc5c7174097d8faa954c25f6, type: 3}
    attribute: m_Sprite
    path: 
    classID: 114
    script: {fileID: -765806418, guid: f70555f144d8491a825f0804e09c671c, type: 3}
  m_SampleRate: 24
  m_WrapMode: 0
  m_Bounds:
    m_Center: {x: 0, y: 0, z: 0}
    m_Extent: {x: 0, y: 0, z: 0}
  m_ClipBindingConstant:
    genericBindings:
    - serializedVersion: 2
      path: 0
      attribute: 2015549526
      script: {fileID: -765806418, guid: f70555f144d8491a825f0804e09c671c, type: 3}
      typeID: 114
      customType: 0
      isPPtrCurve: 1
    pptrCurveMapping:
    - {fileID: 21300000, guid: 530d636e1d1edcb44a93e7d05eb33ca0, type: 3}
    - {fileID: 21300000, guid: a478f642feaf896408479c92d9365dc1, type: 3}
    - {fileID: 21300000, guid: 4ad82745d790f5747b4e36758a3fa7b2, type: 3}
    - {fileID: 21300000, guid: afc2c9e2c9ce0114986f9c3b63d801a3, type: 3}
    - {fileID: 21300000, guid: d8f19306d557f614fbf911c0cc1e552b, type: 3}
    - {fileID: 21300000, guid: fba82b8c19ffa8540a845a67e1cc4e9f, type: 3}
    - {fileID: 21300000, guid: f9b2406030434c9499ee5ac722337740, type: 3}
    - {fileID: 21300000, guid: d87ccb93cc5c7174097d8faa954c25f6, type: 3}
  m_AnimationClipSettings:
    serializedVersion: 2
    m_AdditiveReferencePoseClip: {fileID: 0}
    m_AdditiveReferencePoseTime: 0
    m_StartTime: 0
    m_StopTime: 0.9166667
    m_OrientationOffsetY: 0
    m_Level: 0
    m_CycleOffset: 0
    m_HasAdditiveReferencePose: 0
    m_LoopTime: 1
    m_LoopBlend: 0
    m_LoopBlendOrientation: 0
    m_LoopBlendPositionY: 0
    m_LoopBlendPositionXZ: 0
    m_KeepOriginalOrientation: 0
    m_KeepOriginalPositionY: 1
    m_KeepOriginalPositionXZ: 0
    m_HeightFromFeet: 0
    m_Mirror: 0
  m_EditorCurves: []
  m_EulerEditorCurves: []
  m_HasGenericRootTransform: 0
  m_HasMotionFloatCurves: 0
  m_Events: []
